{
  "$schema": "https://json-schema.org/draft/2020-12/schema",
  "$id": "domain.schema.json",
  "title": "Domain",
  "description": "A PDDL definition in JSON form, for a self-driving laboratory",
  "type": "object",
  "properties": {
    "domain": {
      "description": "The specification for a self-driving laboratory",
      "type": "object",
      "properties": {
        "name": "string",
        "typesList": {
          "description": "Avalible types of objects",
          "type": "array",
          "items": {
            "type": "string"
          }
        },
        "predicatesList": {
          "description": "Avalibile predicates that can be used on defined types, to instantiate a propety that is either true or false",
          "type": "array",
          "items": {
            "type": "object",
            "properties": {
              "input": "string"
            }
          }
        },
        "actionsList": {
          "description": "An action that can occur in the self-driving lab",
          "type": "object",
          "properties": {}
        }
      }
    }
  }
}
